{
	"credit": "Made with Blockbench",
	"texture_size": [64, 64],
	"textures": {
		"0": "tardis:blocks/quantiscope_brass",
      "particle": "block/iron_block"
	},
	"elements": [
		{
			"from": [2, 11, 13],
			"to": [14, 13, 14.75],
			"faces": {
				"north": {"uv": [3.75, 3.25, 6.75, 3.75], "texture": "#0"},
				"east": {"uv": [6.75, 3.25, 7.25, 3.75], "texture": "#0"},
				"south": {"uv": [7.25, 6.5, 10.25, 7], "texture": "#0"},
				"west": {"uv": [12.75, 10.5, 13.25, 11], "texture": "#0"},
				"up": {"uv": [12.25, 6.5, 9.25, 6], "texture": "#0"},
				"down": {"uv": [12.5, 10, 9.5, 10.5], "texture": "#0"}
			}
		},
		{
			"from": [1.5, 11.25, 13.25],
			"to": [2, 12.75, 14.5],
			"faces": {
				"north": {"uv": [0.75, 13.75, 1, 14.25], "texture": "#0"},
				"east": {"uv": [1.75, 13.75, 2, 14.25], "texture": "#0"},
				"south": {"uv": [2, 13.75, 2.25, 14.25], "texture": "#0"},
				"west": {"uv": [2.75, 13.75, 3, 14.25], "texture": "#0"},
				"up": {"uv": [14.25, 11.5, 14, 11.25], "texture": "#0"},
				"down": {"uv": [14.25, 11.5, 14, 11.75], "texture": "#0"}
			}
		},
		{
			"from": [14, 11.25, 13.25],
			"to": [14.5, 12.75, 14.5],
			"faces": {
				"north": {"uv": [3, 13.75, 3.25, 14.25], "texture": "#0"},
				"east": {"uv": [3.25, 13.75, 3.5, 14.25], "texture": "#0"},
				"south": {"uv": [3.5, 13.75, 3.75, 14.25], "texture": "#0"},
				"west": {"uv": [3.75, 13.75, 4, 14.25], "texture": "#0"},
				"up": {"uv": [14.25, 12, 14, 11.75], "texture": "#0"},
				"down": {"uv": [14.25, 12, 14, 12.25], "texture": "#0"}
			}
		},
		{
			"from": [11.5, 10.75, 11.25],
			"to": [13.5, 13.25, 13.25],
			"faces": {
				"north": {"uv": [11.75, 12.5, 12.25, 13.25], "texture": "#0"},
				"east": {"uv": [12.25, 12.5, 12.75, 13.25], "texture": "#0"},
				"south": {"uv": [12.5, 0, 13, 0.75], "texture": "#0"},
				"west": {"uv": [12.5, 3, 13, 3.75], "texture": "#0"},
				"up": {"uv": [2.75, 13.5, 2.25, 13], "texture": "#0"},
				"down": {"uv": [4, 13, 3.5, 13.5], "texture": "#0"}
			}
		},
		{
			"from": [7, 11.75, 11.25],
			"to": [9, 13.25, 13.75],
			"faces": {
				"north": {"uv": [12.75, 11.75, 13.25, 12.25], "texture": "#0"},
				"east": {"uv": [12.25, 6, 13, 6.5], "texture": "#0"},
				"south": {"uv": [12.75, 12.25, 13.25, 12.75], "texture": "#0"},
				"west": {"uv": [1, 12.5, 1.75, 13], "texture": "#0"},
				"up": {"uv": [2.25, 13.25, 1.75, 12.5], "texture": "#0"},
				"down": {"uv": [3.25, 12.5, 2.75, 13.25], "texture": "#0"}
			}
		},
		{
			"from": [2.375, 10.75, 11.25],
			"to": [4.375, 13.25, 13.25],
			"faces": {
				"north": {"uv": [12.5, 3.75, 13, 4.5], "texture": "#0"},
				"east": {"uv": [12.5, 4.5, 13, 5.25], "texture": "#0"},
				"south": {"uv": [12.5, 9, 13, 9.75], "texture": "#0"},
				"west": {"uv": [8.25, 12.75, 8.75, 13.5], "texture": "#0"},
				"up": {"uv": [4.5, 13.5, 4, 13], "texture": "#0"},
				"down": {"uv": [5, 13, 4.5, 13.5], "texture": "#0"}
			}
		},
		{
			"from": [2.875, 10.5, 9.625],
			"to": [3.875, 11.5, 12.25],
			"faces": {
				"north": {"uv": [13.75, 10.25, 14, 10.5], "texture": "#0"},
				"east": {"uv": [9.75, 13.25, 10.5, 13.5], "texture": "#0"},
				"south": {"uv": [13.75, 11, 14, 11.25], "texture": "#0"},
				"west": {"uv": [11.75, 13.25, 12.5, 13.5], "texture": "#0"},
				"up": {"uv": [10.75, 14, 10.5, 13.25], "texture": "#0"},
				"down": {"uv": [12.75, 13.25, 12.5, 14], "texture": "#0"}
			}
		},
		{
			"from": [12, 10.5, 9.625],
			"to": [13, 11.5, 12.25],
			"faces": {
				"north": {"uv": [14, 0.75, 14.25, 1], "texture": "#0"},
				"east": {"uv": [13.25, 13.25, 14, 13.5], "texture": "#0"},
				"south": {"uv": [14, 1, 14.25, 1.25], "texture": "#0"},
				"west": {"uv": [13.25, 10.5, 14, 10.75], "texture": "#0"},
				"up": {"uv": [13.5, 12.5, 13.25, 11.75], "texture": "#0"},
				"down": {"uv": [13.5, 12.5, 13.25, 13.25], "texture": "#0"}
			}
		},
		{
			"from": [3.125, 10.75, 9.375],
			"to": [3.625, 11.25, 9.75],
			"faces": {
				"north": {"uv": [9.75, 14, 10, 14.25], "texture": "#0"},
				"east": {"uv": [10, 14, 10.25, 14.25], "texture": "#0"},
				"south": {"uv": [10.25, 14, 10.5, 14.25], "texture": "#0"},
				"west": {"uv": [10.5, 14, 10.75, 14.25], "texture": "#0"},
				"up": {"uv": [12, 14.25, 11.75, 14], "texture": "#0"},
				"down": {"uv": [12.25, 14, 12, 14.25], "texture": "#0"}
			}
		},
		{
			"from": [12.25, 10.75, 9.375],
			"to": [12.75, 11.25, 9.75],
			"faces": {
				"north": {"uv": [13.25, 14, 13.5, 14.25], "texture": "#0"},
				"east": {"uv": [13.75, 14, 14, 14.25], "texture": "#0"},
				"south": {"uv": [14, 14, 14.25, 14.25], "texture": "#0"},
				"west": {"uv": [14, 0, 14.25, 0.25], "texture": "#0"},
				"up": {"uv": [14.25, 0.5, 14, 0.25], "texture": "#0"},
				"down": {"uv": [14.25, 0.5, 14, 0.75], "texture": "#0"}
			}
		},
		{
			"from": [3.125, 9.75, 10.875],
			"to": [3.625, 10.5, 13.25],
			"rotation": {"angle": -22.5, "axis": "x", "origin": [8, 8, 8]},
			"faces": {
				"north": {"uv": [13.75, 11.5, 14, 11.75], "texture": "#0"},
				"east": {"uv": [13.5, 13.5, 14, 13.75], "texture": "#0"},
				"south": {"uv": [13.75, 11.75, 14, 12], "texture": "#0"},
				"west": {"uv": [13.5, 0, 14, 0.25], "texture": "#0"},
				"up": {"uv": [13.75, 3.5, 13.5, 3], "texture": "#0"},
				"down": {"uv": [13.75, 3.5, 13.5, 4], "texture": "#0"}
			}
		},
		{
			"from": [12.25, 9.75, 10.875],
			"to": [12.75, 10.5, 13.25],
			"rotation": {"angle": -22.5, "axis": "x", "origin": [8, 8, 8]},
			"faces": {
				"north": {"uv": [12.25, 14, 12.5, 14.25], "texture": "#0"},
				"east": {"uv": [13.5, 0.25, 14, 0.5], "texture": "#0"},
				"south": {"uv": [12.5, 14, 12.75, 14.25], "texture": "#0"},
				"west": {"uv": [13.5, 6, 14, 6.25], "texture": "#0"},
				"up": {"uv": [13.75, 9.5, 13.5, 9], "texture": "#0"},
				"down": {"uv": [13.75, 11.75, 13.5, 12.25], "texture": "#0"}
			}
		},
		{
			"from": [1, 0, 3],
			"to": [15, 1, 15.75],
			"faces": {
				"north": {"uv": [10.5, 11.25, 14, 11.5], "texture": "#0"},
				"east": {"uv": [11.25, 7.25, 14.5, 7.5], "texture": "#0"},
				"south": {"uv": [11.25, 6.5, 14.75, 6.75], "texture": "#0"},
				"west": {"uv": [11.25, 7.5, 14.5, 7.75], "texture": "#0"},
				"up": {"uv": [7.25, 7, 3.75, 3.75], "texture": "#0"},
				"down": {"uv": [7.25, 0, 3.75, 3.25], "texture": "#0"}
			}
		},
		{
			"from": [1, 2, 3],
			"to": [15, 2.75, 15.75],
			"faces": {
				"north": {"uv": [11.25, 6.75, 14.75, 7], "texture": "#0"},
				"east": {"uv": [11.25, 8.25, 14.5, 8.5], "texture": "#0"},
				"south": {"uv": [11.25, 7, 14.75, 7.25], "texture": "#0"},
				"west": {"uv": [11.25, 8.5, 14.5, 8.75], "texture": "#0"},
				"up": {"uv": [3.5, 9.75, 0, 6.5], "texture": "#0"},
				"down": {"uv": [7, 7, 3.5, 10.25], "texture": "#0"}
			}
		},
		{
			"from": [1.5, 2.75, 3.5],
			"to": [14.5, 3, 15.25],
			"faces": {
				"north": {"uv": [11.25, 8.75, 14.5, 9], "texture": "#0"},
				"east": {"uv": [11.5, 1.5, 14.5, 1.75], "texture": "#0"},
				"south": {"uv": [10.5, 11.5, 13.75, 11.75], "texture": "#0"},
				"west": {"uv": [11.5, 1.75, 14.5, 2], "texture": "#0"},
				"up": {"uv": [10.25, 10, 7, 7], "texture": "#0"},
				"down": {"uv": [10.5, 0, 7.25, 3], "texture": "#0"}
			}
		},
		{
			"from": [0.625, 1, 2.625],
			"to": [15.375, 2, 16],
			"faces": {
				"north": {"uv": [10.25, 9.75, 14, 10], "texture": "#0"},
				"east": {"uv": [11.25, 7.75, 14.5, 8], "texture": "#0"},
				"south": {"uv": [10.5, 2, 14.25, 2.25], "texture": "#0"},
				"west": {"uv": [11.25, 8, 14.5, 8.25], "texture": "#0"},
				"up": {"uv": [3.75, 3.25, 0, 0], "texture": "#0"},
				"down": {"uv": [3.75, 3.25, 0, 6.5], "texture": "#0"}
			}
		},
		{
			"from": [3, 2, 2],
			"to": [13, 5, 4.75],
			"rotation": {"angle": 45, "axis": "x", "origin": [8, 2.5, 2.375]},
			"faces": {
				"north": {"uv": [9.25, 3, 11.75, 3.75], "texture": "#0"},
				"east": {"uv": [11.75, 9, 12.5, 9.75], "texture": "#0"},
				"south": {"uv": [9.25, 3.75, 11.75, 4.5], "texture": "#0"},
				"west": {"uv": [12, 10.5, 12.75, 11.25], "texture": "#0"},
				"up": {"uv": [11.75, 5.25, 9.25, 4.5], "texture": "#0"},
				"down": {"uv": [11.75, 5.25, 9.25, 6], "texture": "#0"}
			}
		},
		{
			"from": [5.5, 2.25, 1.875],
			"to": [10.5, 4.75, 2.125],
			"rotation": {"angle": 45, "axis": "x", "origin": [8, 2.5, 2.375]},
			"faces": {
				"north": {"uv": [10.5, 2.25, 11.75, 3], "texture": "#0"},
				"east": {"uv": [2.25, 13.5, 2.5, 14.25], "texture": "#0"},
				"south": {"uv": [7, 11.25, 8.25, 12], "texture": "#0"},
				"west": {"uv": [2.5, 13.5, 2.75, 14.25], "texture": "#0"},
				"up": {"uv": [13.75, 10.5, 12.5, 10.25], "texture": "#0"},
				"down": {"uv": [14, 2.25, 12.75, 2.5], "texture": "#0"}
			}
		},
		{
			"from": [3.25, 4.25, 1.875],
			"to": [3.75, 4.75, 2.125],
			"rotation": {"angle": 45, "axis": "x", "origin": [8, 2.5, 2.375]},
			"faces": {
				"north": {"uv": [14, 12.25, 14.25, 12.5], "texture": "#0"},
				"east": {"uv": [14, 12.5, 14.25, 12.75], "texture": "#0"},
				"south": {"uv": [14, 12.75, 14.25, 13], "texture": "#0"},
				"west": {"uv": [14, 13, 14.25, 13.25], "texture": "#0"},
				"up": {"uv": [14.25, 13.5, 14, 13.25], "texture": "#0"},
				"down": {"uv": [14.25, 13.5, 14, 13.75], "texture": "#0"}
			}
		},
		{
			"from": [10.75, 4.25, 1.875],
			"to": [11.25, 4.75, 2.125],
			"rotation": {"angle": 45, "axis": "x", "origin": [8, 2.5, 2.375]},
			"faces": {
				"north": {"uv": [14.25, 11.75, 14.5, 12], "texture": "#0"},
				"east": {"uv": [14.25, 12, 14.5, 12.25], "texture": "#0"},
				"south": {"uv": [14.25, 12.25, 14.5, 12.5], "texture": "#0"},
				"west": {"uv": [14.25, 12.5, 14.5, 12.75], "texture": "#0"},
				"up": {"uv": [14.5, 13, 14.25, 12.75], "texture": "#0"},
				"down": {"uv": [14.5, 13, 14.25, 13.25], "texture": "#0"}
			}
		},
		{
			"from": [4, 4.25, 1.875],
			"to": [4.5, 4.75, 2.125],
			"rotation": {"angle": 45, "axis": "x", "origin": [8, 2.5, 2.375]},
			"faces": {
				"north": {"uv": [6, 14.25, 6.25, 14.5], "texture": "#0"},
				"east": {"uv": [6.25, 14.25, 6.5, 14.5], "texture": "#0"},
				"south": {"uv": [6.5, 14.25, 6.75, 14.5], "texture": "#0"},
				"west": {"uv": [6.75, 14.25, 7, 14.5], "texture": "#0"},
				"up": {"uv": [8.5, 14.5, 8.25, 14.25], "texture": "#0"},
				"down": {"uv": [8.75, 14.25, 8.5, 14.5], "texture": "#0"}
			}
		},
		{
			"from": [11.5, 4.25, 1.875],
			"to": [12, 4.75, 2.125],
			"rotation": {"angle": 45, "axis": "x", "origin": [8, 2.5, 2.375]},
			"faces": {
				"north": {"uv": [14.25, 4.75, 14.5, 5], "texture": "#0"},
				"east": {"uv": [14.25, 5, 14.5, 5.25], "texture": "#0"},
				"south": {"uv": [14.25, 5.25, 14.5, 5.5], "texture": "#0"},
				"west": {"uv": [14.25, 5.5, 14.5, 5.75], "texture": "#0"},
				"up": {"uv": [14.5, 6, 14.25, 5.75], "texture": "#0"},
				"down": {"uv": [14.5, 6, 14.25, 6.25], "texture": "#0"}
			}
		},
		{
			"from": [4.75, 4.25, 1.875],
			"to": [5.25, 4.75, 2.125],
			"rotation": {"angle": 45, "axis": "x", "origin": [8, 2.5, 2.375]},
			"faces": {
				"north": {"uv": [12.75, 14.25, 13, 14.5], "texture": "#0"},
				"east": {"uv": [13, 14.25, 13.25, 14.5], "texture": "#0"},
				"south": {"uv": [13.25, 14.25, 13.5, 14.5], "texture": "#0"},
				"west": {"uv": [13.5, 14.25, 13.75, 14.5], "texture": "#0"},
				"up": {"uv": [14, 14.5, 13.75, 14.25], "texture": "#0"},
				"down": {"uv": [14.25, 14.25, 14, 14.5], "texture": "#0"}
			}
		},
		{
			"from": [12.25, 4.25, 1.875],
			"to": [12.75, 4.75, 2.125],
			"rotation": {"angle": 45, "axis": "x", "origin": [8, 2.5, 2.375]},
			"faces": {
				"north": {"uv": [14.25, 3.25, 14.5, 3.5], "texture": "#0"},
				"east": {"uv": [14.25, 3.5, 14.5, 3.75], "texture": "#0"},
				"south": {"uv": [14.25, 3.75, 14.5, 4], "texture": "#0"},
				"west": {"uv": [14.25, 4, 14.5, 4.25], "texture": "#0"},
				"up": {"uv": [14.5, 4.5, 14.25, 4.25], "texture": "#0"},
				"down": {"uv": [14.5, 4.5, 14.25, 4.75], "texture": "#0"}
			}
		},
		{
			"from": [3.25, 3.5, 1.875],
			"to": [3.75, 4, 2.125],
			"rotation": {"angle": 45, "axis": "x", "origin": [8, 2.5, 2.375]},
			"faces": {
				"north": {"uv": [0, 14.25, 0.25, 14.5], "texture": "#0"},
				"east": {"uv": [0.25, 14.25, 0.5, 14.5], "texture": "#0"},
				"south": {"uv": [0.5, 14.25, 0.75, 14.5], "texture": "#0"},
				"west": {"uv": [0.75, 14.25, 1, 14.5], "texture": "#0"},
				"up": {"uv": [1.25, 14.5, 1, 14.25], "texture": "#0"},
				"down": {"uv": [1.5, 14.25, 1.25, 14.5], "texture": "#0"}
			}
		},
		{
			"from": [10.75, 3.5, 1.875],
			"to": [11.25, 4, 2.125],
			"rotation": {"angle": 45, "axis": "x", "origin": [8, 2.5, 2.375]},
			"faces": {
				"north": {"uv": [14.25, 13.25, 14.5, 13.5], "texture": "#0"},
				"east": {"uv": [14.25, 13.5, 14.5, 13.75], "texture": "#0"},
				"south": {"uv": [14.25, 13.75, 14.5, 14], "texture": "#0"},
				"west": {"uv": [14.25, 14, 14.5, 14.25], "texture": "#0"},
				"up": {"uv": [0.25, 14.75, 0, 14.5], "texture": "#0"},
				"down": {"uv": [0.5, 14.5, 0.25, 14.75], "texture": "#0"}
			}
		},
		{
			"from": [4, 3.5, 1.875],
			"to": [4.5, 4, 2.125],
			"rotation": {"angle": 45, "axis": "x", "origin": [8, 2.5, 2.375]},
			"faces": {
				"north": {"uv": [4.5, 14.25, 4.75, 14.5], "texture": "#0"},
				"east": {"uv": [4.75, 14.25, 5, 14.5], "texture": "#0"},
				"south": {"uv": [5, 14.25, 5.25, 14.5], "texture": "#0"},
				"west": {"uv": [5.25, 14.25, 5.5, 14.5], "texture": "#0"},
				"up": {"uv": [5.75, 14.5, 5.5, 14.25], "texture": "#0"},
				"down": {"uv": [6, 14.25, 5.75, 14.5], "texture": "#0"}
			}
		},
		{
			"from": [11.5, 3.5, 1.875],
			"to": [12, 4, 2.125],
			"rotation": {"angle": 45, "axis": "x", "origin": [8, 2.5, 2.375]},
			"faces": {
				"north": {"uv": [14.25, 6.25, 14.5, 6.5], "texture": "#0"},
				"east": {"uv": [14.25, 9, 14.5, 9.25], "texture": "#0"},
				"south": {"uv": [14.25, 9.25, 14.5, 9.5], "texture": "#0"},
				"west": {"uv": [14.25, 9.5, 14.5, 9.75], "texture": "#0"},
				"up": {"uv": [14.5, 10, 14.25, 9.75], "texture": "#0"},
				"down": {"uv": [14.5, 10, 14.25, 10.25], "texture": "#0"}
			}
		},
		{
			"from": [4.75, 3.5, 1.875],
			"to": [5.25, 4, 2.125],
			"rotation": {"angle": 45, "axis": "x", "origin": [8, 2.5, 2.375]},
			"faces": {
				"north": {"uv": [10.25, 14.25, 10.5, 14.5], "texture": "#0"},
				"east": {"uv": [10.5, 14.25, 10.75, 14.5], "texture": "#0"},
				"south": {"uv": [11.75, 14.25, 12, 14.5], "texture": "#0"},
				"west": {"uv": [12, 14.25, 12.25, 14.5], "texture": "#0"},
				"up": {"uv": [12.5, 14.5, 12.25, 14.25], "texture": "#0"},
				"down": {"uv": [12.75, 14.25, 12.5, 14.5], "texture": "#0"}
			}
		},
		{
			"from": [12.25, 3.5, 1.875],
			"to": [12.75, 4, 2.125],
			"rotation": {"angle": 45, "axis": "x", "origin": [8, 2.5, 2.375]},
			"faces": {
				"north": {"uv": [14.25, 1.25, 14.5, 1.5], "texture": "#0"},
				"east": {"uv": [14.25, 2, 14.5, 2.25], "texture": "#0"},
				"south": {"uv": [14.25, 2.25, 14.5, 2.5], "texture": "#0"},
				"west": {"uv": [14.25, 2.5, 14.5, 2.75], "texture": "#0"},
				"up": {"uv": [14.5, 3, 14.25, 2.75], "texture": "#0"},
				"down": {"uv": [14.5, 3, 14.25, 3.25], "texture": "#0"}
			}
		},
		{
			"from": [3.25, 2.25, 1.875],
			"to": [3.75, 2.75, 2.125],
			"rotation": {"angle": 45, "axis": "x", "origin": [8, 2.5, 2.375]},
			"faces": {
				"north": {"uv": [1.5, 14.25, 1.75, 14.5], "texture": "#0"},
				"east": {"uv": [1.75, 14.25, 2, 14.5], "texture": "#0"},
				"south": {"uv": [2, 14.25, 2.25, 14.5], "texture": "#0"},
				"west": {"uv": [2.25, 14.25, 2.5, 14.5], "texture": "#0"},
				"up": {"uv": [2.75, 14.5, 2.5, 14.25], "texture": "#0"},
				"down": {"uv": [3, 14.25, 2.75, 14.5], "texture": "#0"}
			}
		},
		{
			"from": [10.75, 2.25, 1.875],
			"to": [11.25, 2.75, 2.125],
			"rotation": {"angle": 45, "axis": "x", "origin": [8, 2.5, 2.375]},
			"faces": {
				"north": {"uv": [0.5, 14.5, 0.75, 14.75], "texture": "#0"},
				"east": {"uv": [0.75, 14.5, 1, 14.75], "texture": "#0"},
				"south": {"uv": [1, 14.5, 1.25, 14.75], "texture": "#0"},
				"west": {"uv": [1.25, 14.5, 1.5, 14.75], "texture": "#0"},
				"up": {"uv": [1.75, 14.75, 1.5, 14.5], "texture": "#0"},
				"down": {"uv": [2, 14.5, 1.75, 14.75], "texture": "#0"}
			}
		},
		{
			"from": [4, 2.25, 1.875],
			"to": [4.5, 2.75, 2.125],
			"rotation": {"angle": 45, "axis": "x", "origin": [8, 2.5, 2.375]},
			"faces": {
				"north": {"uv": [3, 14.25, 3.25, 14.5], "texture": "#0"},
				"east": {"uv": [3.25, 14.25, 3.5, 14.5], "texture": "#0"},
				"south": {"uv": [3.5, 14.25, 3.75, 14.5], "texture": "#0"},
				"west": {"uv": [3.75, 14.25, 4, 14.5], "texture": "#0"},
				"up": {"uv": [4.25, 14.5, 4, 14.25], "texture": "#0"},
				"down": {"uv": [4.5, 14.25, 4.25, 14.5], "texture": "#0"}
			}
		},
		{
			"from": [11.5, 2.25, 1.875],
			"to": [12, 2.75, 2.125],
			"rotation": {"angle": 45, "axis": "x", "origin": [8, 2.5, 2.375]},
			"faces": {
				"north": {"uv": [14.25, 10.25, 14.5, 10.5], "texture": "#0"},
				"east": {"uv": [14.25, 10.5, 14.5, 10.75], "texture": "#0"},
				"south": {"uv": [14.25, 10.75, 14.5, 11], "texture": "#0"},
				"west": {"uv": [14.25, 11, 14.5, 11.25], "texture": "#0"},
				"up": {"uv": [14.5, 11.5, 14.25, 11.25], "texture": "#0"},
				"down": {"uv": [14.5, 11.5, 14.25, 11.75], "texture": "#0"}
			}
		},
		{
			"from": [4.75, 2.25, 1.875],
			"to": [5.25, 2.75, 2.125],
			"rotation": {"angle": 45, "axis": "x", "origin": [8, 2.5, 2.375]},
			"faces": {
				"north": {"uv": [8.75, 14.25, 9, 14.5], "texture": "#0"},
				"east": {"uv": [9, 14.25, 9.25, 14.5], "texture": "#0"},
				"south": {"uv": [9.25, 14.25, 9.5, 14.5], "texture": "#0"},
				"west": {"uv": [9.5, 14.25, 9.75, 14.5], "texture": "#0"},
				"up": {"uv": [10, 14.5, 9.75, 14.25], "texture": "#0"},
				"down": {"uv": [10.25, 14.25, 10, 14.5], "texture": "#0"}
			}
		},
		{
			"from": [12.25, 2.25, 1.875],
			"to": [12.75, 2.75, 2.125],
			"rotation": {"angle": 45, "axis": "x", "origin": [8, 2.5, 2.375]},
			"faces": {
				"north": {"uv": [14.25, 14.25, 14.5, 14.5], "texture": "#0"},
				"east": {"uv": [14.25, 0, 14.5, 0.25], "texture": "#0"},
				"south": {"uv": [14.25, 0.25, 14.5, 0.5], "texture": "#0"},
				"west": {"uv": [14.25, 0.5, 14.5, 0.75], "texture": "#0"},
				"up": {"uv": [14.5, 1, 14.25, 0.75], "texture": "#0"},
				"down": {"uv": [14.5, 1, 14.25, 1.25], "texture": "#0"}
			}
		},
		{
			"from": [4, 3.3125, 6],
			"to": [12.25, 3.5, 13.25],
			"faces": {
				"north": {"uv": [11.75, 5.75, 13.75, 6], "texture": "#0"},
				"east": {"uv": [12, 5.5, 13.75, 5.75], "texture": "#0"},
				"south": {"uv": [12, 1.25, 14, 1.5], "texture": "#0"},
				"west": {"uv": [0.5, 12.25, 2.25, 12.5], "texture": "#0"},
				"up": {"uv": [9.25, 4.75, 7.25, 3], "texture": "#0"},
				"down": {"uv": [9.25, 4.75, 7.25, 6.5], "texture": "#0"}
			}
		},
		{
			"from": [5, 2.8125, 7],
			"to": [11.25, 3.40625, 12.25],
			"faces": {
				"north": {"uv": [12.5, 5.25, 14, 5.5], "texture": "#0"},
				"east": {"uv": [12.75, 2.5, 14, 2.75], "texture": "#0"},
				"south": {"uv": [12.5, 10, 14, 10.25], "texture": "#0"},
				"west": {"uv": [12.75, 2.75, 14, 3], "texture": "#0"},
				"up": {"uv": [1.5, 11, 0, 9.75], "texture": "#0"},
				"down": {"uv": [3, 9.75, 1.5, 11], "texture": "#0"}
			}
		},
		{
			"from": [9, 2.75, 14],
			"to": [10, 14, 15.625],
			"faces": {
				"north": {"uv": [7.25, 12, 7.5, 14.75], "texture": "#0"},
				"east": {"uv": [4, 10.25, 4.5, 13], "texture": "#0"},
				"south": {"uv": [7.5, 12, 7.75, 14.75], "texture": "#0"},
				"west": {"uv": [4.5, 10.25, 5, 13], "texture": "#0"},
				"up": {"uv": [3.75, 7, 3.5, 6.5], "texture": "#0"},
				"down": {"uv": [9.5, 11.25, 9.25, 11.75], "texture": "#0"}
			}
		},
		{
			"from": [7, 2.75, 15],
			"to": [9, 14, 15.75],
			"faces": {
				"north": {"uv": [3, 9.75, 3.5, 12.5], "texture": "#0"},
				"east": {"uv": [11.75, 3, 12, 5.75], "texture": "#0"},
				"south": {"uv": [3.5, 10.25, 4, 13], "texture": "#0"},
				"west": {"uv": [7, 12, 7.25, 14.75], "texture": "#0"},
				"up": {"uv": [7, 13.75, 6.5, 13.5], "texture": "#0"},
				"down": {"uv": [10.25, 13.5, 9.75, 13.75], "texture": "#0"}
			}
		},
		{
			"from": [7.75, 2, 15.75],
			"to": [8.25, 14, 16],
			"faces": {
				"north": {"uv": [10.75, 11.75, 11, 14.75], "texture": "#0"},
				"east": {"uv": [11, 11.75, 11.25, 14.75], "texture": "#0"},
				"south": {"uv": [11.25, 11.75, 11.5, 14.75], "texture": "#0"},
				"west": {"uv": [11.5, 11.75, 11.75, 14.75], "texture": "#0"},
				"up": {"uv": [14.25, 1.5, 14, 1.25], "texture": "#0"},
				"down": {"uv": [14.25, 2.25, 14, 2.5], "texture": "#0"}
			}
		},
		{
			"from": [6, 2.75, 14],
			"to": [7, 14, 15.625],
			"faces": {
				"north": {"uv": [7.75, 12, 8, 14.75], "texture": "#0"},
				"east": {"uv": [5, 10.25, 5.5, 13], "texture": "#0"},
				"south": {"uv": [8, 12, 8.25, 14.75], "texture": "#0"},
				"west": {"uv": [5.5, 10.25, 6, 13], "texture": "#0"},
				"up": {"uv": [9.25, 14, 9, 13.5], "texture": "#0"},
				"down": {"uv": [10.5, 13.5, 10.25, 14], "texture": "#0"}
			}
		},
		{
			"from": [5.25, 11.36916, -3.12652],
			"to": [10.75, 14.36916, -2.37652],
			"rotation": {"angle": 45, "axis": "x", "origin": [8, 2.5, 2.375]},
			"faces": {
				"north": {"uv": [10.25, 9, 11.75, 9.75], "texture": "#0"},
				"east": {"uv": [9.25, 13.25, 9.5, 14], "texture": "#0"},
				"south": {"uv": [10.5, 10.5, 12, 11.25], "texture": "#0"},
				"west": {"uv": [9.5, 13.25, 9.75, 14], "texture": "#0"},
				"up": {"uv": [14, 1, 12.5, 0.75], "texture": "#0"},
				"down": {"uv": [14, 1, 12.5, 1.25], "texture": "#0"}
			}
		},
		{
			"from": [6.5, 10.86916, -3.12652],
			"to": [9.5, 11.36916, -2.37652],
			"rotation": {"angle": 45, "axis": "x", "origin": [8, 2.5, 2.375]},
			"faces": {
				"north": {"uv": [13.25, 10.75, 14, 11], "texture": "#0"},
				"east": {"uv": [14, 10.75, 14.25, 11], "texture": "#0"},
				"south": {"uv": [3.5, 13.5, 4.25, 13.75], "texture": "#0"},
				"west": {"uv": [14, 11, 14.25, 11.25], "texture": "#0"},
				"up": {"uv": [5, 13.75, 4.25, 13.5], "texture": "#0"},
				"down": {"uv": [5.75, 13.5, 5, 13.75], "texture": "#0"}
			}
		},
		{
			"from": [6.75, 11.61916, -3.22027],
			"to": [10.5, 14.11916, -2.97027],
			"rotation": {"angle": 45, "axis": "x", "origin": [8, 2.5, 2.375]},
			"faces": {
				"north": {"uv": [11.75, 11.75, 12.75, 12.5], "texture": "#0"},
				"east": {"uv": [0, 13.5, 0.25, 14.25], "texture": "#0"},
				"south": {"uv": [11.75, 2.25, 12.75, 3], "texture": "#0"},
				"west": {"uv": [0.25, 13.5, 0.5, 14.25], "texture": "#0"},
				"up": {"uv": [13.75, 11.25, 12.75, 11], "texture": "#0"},
				"down": {"uv": [14, 0.5, 13, 0.75], "texture": "#0"}
			}
		},
		{
			"from": [5.5, 13.36916, -3.18902],
			"to": [6.5, 14.11916, -2.93902],
			"rotation": {"angle": 45, "axis": "x", "origin": [8, 2.5, 2.375]},
			"faces": {
				"north": {"uv": [14, 2.5, 14.25, 2.75], "texture": "#0"},
				"east": {"uv": [14, 2.75, 14.25, 3], "texture": "#0"},
				"south": {"uv": [14, 3.75, 14.25, 4], "texture": "#0"},
				"west": {"uv": [14, 4, 14.25, 4.25], "texture": "#0"},
				"up": {"uv": [14.25, 4.5, 14, 4.25], "texture": "#0"},
				"down": {"uv": [14.25, 4.5, 14, 4.75], "texture": "#0"}
			}
		},
		{
			"from": [5.5, 11.61916, -3.18902],
			"to": [6.5, 12.36916, -2.93902],
			"rotation": {"angle": 45, "axis": "x", "origin": [8, 2.5, 2.375]},
			"faces": {
				"north": {"uv": [14, 4.75, 14.25, 5], "texture": "#0"},
				"east": {"uv": [14, 5, 14.25, 5.25], "texture": "#0"},
				"south": {"uv": [14, 5.25, 14.25, 5.5], "texture": "#0"},
				"west": {"uv": [14, 5.5, 14.25, 5.75], "texture": "#0"},
				"up": {"uv": [14.25, 6, 14, 5.75], "texture": "#0"},
				"down": {"uv": [14.25, 6, 14, 6.25], "texture": "#0"}
			}
		},
		{
			"from": [5.5, 12.61916, -3.18902],
			"to": [6.5, 13.11916, -2.93902],
			"rotation": {"angle": 45, "axis": "x", "origin": [8, 2.5, 2.375]},
			"faces": {
				"north": {"uv": [14, 6.25, 14.25, 6.5], "texture": "#0"},
				"east": {"uv": [14, 9, 14.25, 9.25], "texture": "#0"},
				"south": {"uv": [14, 9.25, 14.25, 9.5], "texture": "#0"},
				"west": {"uv": [14, 9.5, 14.25, 9.75], "texture": "#0"},
				"up": {"uv": [14.25, 10, 14, 9.75], "texture": "#0"},
				"down": {"uv": [14.25, 10, 14, 10.25], "texture": "#0"}
			}
		},
		{
			"from": [7, 11.86916, -2.37652],
			"to": [9, 13.86916, -0.37652],
			"rotation": {"angle": 45, "axis": "x", "origin": [8, 2.5, 2.375]},
			"faces": {
				"north": {"uv": [6, 13, 6.5, 13.5], "texture": "#0"},
				"east": {"uv": [6.5, 13, 7, 13.5], "texture": "#0"},
				"south": {"uv": [13, 0, 13.5, 0.5], "texture": "#0"},
				"west": {"uv": [13, 3, 13.5, 3.5], "texture": "#0"},
				"up": {"uv": [13.5, 4, 13, 3.5], "texture": "#0"},
				"down": {"uv": [13.5, 4, 13, 4.5], "texture": "#0"}
			}
		},
		{
			"from": [7.75, 11.11916, -2.37652],
			"to": [8.25, 11.86916, -0.37652],
			"rotation": {"angle": 45, "axis": "x", "origin": [8, 2.5, 2.375]},
			"faces": {
				"north": {"uv": [14, 10.25, 14.25, 10.5], "texture": "#0"},
				"east": {"uv": [13.5, 6.25, 14, 6.5], "texture": "#0"},
				"south": {"uv": [14, 10.5, 14.25, 10.75], "texture": "#0"},
				"west": {"uv": [13.5, 12.25, 14, 12.5], "texture": "#0"},
				"up": {"uv": [13.75, 13, 13.5, 12.5], "texture": "#0"},
				"down": {"uv": [0.75, 13.75, 0.5, 14.25], "texture": "#0"}
			}
		},
		{
			"from": [6, 9, 7],
			"to": [10, 14, 10.75],
			"faces": {
				"north": {"uv": [6, 10.25, 7, 11.5], "texture": "#0"},
				"east": {"uv": [10.25, 6.5, 11.25, 7.75], "texture": "#0"},
				"south": {"uv": [10.25, 7.75, 11.25, 9], "texture": "#0"},
				"west": {"uv": [9.5, 10.5, 10.5, 11.75], "texture": "#0"},
				"up": {"uv": [11.5, 1, 10.5, 0], "texture": "#0"},
				"down": {"uv": [11.5, 1, 10.5, 2], "texture": "#0"}
			}
		},
		{
			"from": [6.5, 8.5, 6.5],
			"to": [9.5, 13.5, 11.25],
			"faces": {
				"north": {"uv": [0, 11, 0.75, 12.25], "texture": "#0"},
				"east": {"uv": [7, 10, 8.25, 11.25], "texture": "#0"},
				"south": {"uv": [0.75, 11, 1.5, 12.25], "texture": "#0"},
				"west": {"uv": [8.25, 10, 9.5, 11.25], "texture": "#0"},
				"up": {"uv": [2.25, 12.25, 1.5, 11], "texture": "#0"},
				"down": {"uv": [3, 11, 2.25, 12.25], "texture": "#0"}
			}
		},
		{
			"from": [7.375, 5.875, 8.125],
			"to": [8.625, 8.125, 9.375],
			"faces": {
				"north": {"uv": [8.75, 13.75, 9, 14.25], "texture": "#0"},
				"east": {"uv": [12.75, 13.75, 13, 14.25], "texture": "#0"},
				"south": {"uv": [13, 13.75, 13.25, 14.25], "texture": "#0"},
				"west": {"uv": [13.5, 13.75, 13.75, 14.25], "texture": "#0"},
				"up": {"uv": [3.25, 14.75, 3, 14.5], "texture": "#0"},
				"down": {"uv": [3.5, 14.5, 3.25, 14.75], "texture": "#0"}
			}
		},
		{
			"from": [7, 7.25, 7.5],
			"to": [9, 8.5, 10],
			"faces": {
				"north": {"uv": [11.75, 13.5, 12.25, 13.75], "texture": "#0"},
				"east": {"uv": [13, 5, 13.75, 5.25], "texture": "#0"},
				"south": {"uv": [12.75, 13.5, 13.25, 13.75], "texture": "#0"},
				"west": {"uv": [13, 9.5, 13.75, 9.75], "texture": "#0"},
				"up": {"uv": [2.75, 13, 2.25, 12.25], "texture": "#0"},
				"down": {"uv": [1, 12.5, 0.5, 13.25], "texture": "#0"}
			}
		},
		{
			"from": [7, 13.75, 7.5],
			"to": [9, 15, 10],
			"faces": {
				"north": {"uv": [13.5, 13, 14, 13.25], "texture": "#0"},
				"east": {"uv": [5.75, 13.5, 6.5, 13.75], "texture": "#0"},
				"south": {"uv": [4, 13.75, 4.5, 14], "texture": "#0"},
				"west": {"uv": [8.25, 13.5, 9, 13.75], "texture": "#0"},
				"up": {"uv": [9.25, 13.5, 8.75, 12.75], "texture": "#0"},
				"down": {"uv": [13.25, 12.75, 12.75, 13.5], "texture": "#0"}
			}
		},
		{
			"from": [7.25, 6, 8],
			"to": [8.75, 6.5, 9.5],
			"faces": {
				"north": {"uv": [6.5, 13.75, 7, 14], "texture": "#0"},
				"east": {"uv": [8.25, 13.75, 8.75, 14], "texture": "#0"},
				"south": {"uv": [9.75, 13.75, 10.25, 14], "texture": "#0"},
				"west": {"uv": [11.75, 13.75, 12.25, 14], "texture": "#0"},
				"up": {"uv": [13.5, 9.5, 13, 9], "texture": "#0"},
				"down": {"uv": [1, 13.25, 0.5, 13.75], "texture": "#0"}
			}
		},
		{
			"from": [7.25, 6.5625, 8],
			"to": [8.75, 7.1875, 9.5],
			"faces": {
				"north": {"uv": [13.75, 13.75, 14.25, 14], "texture": "#0"},
				"east": {"uv": [13.75, 3, 14.25, 3.25], "texture": "#0"},
				"south": {"uv": [13.75, 3.25, 14.25, 3.5], "texture": "#0"},
				"west": {"uv": [13.75, 3.5, 14.25, 3.75], "texture": "#0"},
				"up": {"uv": [2.25, 13.75, 1.75, 13.25], "texture": "#0"},
				"down": {"uv": [3.25, 13.25, 2.75, 13.75], "texture": "#0"}
			}
		},
		{
			"from": [4.15459, 7.06257, 7.58],
			"to": [5.83459, 13.16257, 9.155],
			"rotation": {"angle": 22.5, "axis": "z", "origin": [8, 8, 8]},
			"faces": {
				"north": {"uv": [8.25, 11.25, 8.75, 12.75], "texture": "#0"},
				"east": {"uv": [8.75, 11.25, 9.25, 12.75], "texture": "#0"},
				"south": {"uv": [6, 11.5, 6.5, 13], "texture": "#0"},
				"west": {"uv": [6.5, 11.5, 7, 13], "texture": "#0"},
				"up": {"uv": [5.5, 13.5, 5, 13], "texture": "#0"},
				"down": {"uv": [6, 13, 5.5, 13.5], "texture": "#0"}
			}
		},
		{
			"from": [4.36459, 6.85257, 7.37],
			"to": [5.62459, 11.45257, 9.365],
			"rotation": {"angle": 22.5, "axis": "z", "origin": [8, 8, 8]},
			"faces": {
				"north": {"uv": [3.25, 12.5, 3.5, 13.75], "texture": "#0"},
				"east": {"uv": [12, 0, 12.5, 1.25], "texture": "#0"},
				"south": {"uv": [1, 13, 1.25, 14.25], "texture": "#0"},
				"west": {"uv": [12, 3, 12.5, 4.25], "texture": "#0"},
				"up": {"uv": [12.5, 14, 12.25, 13.5], "texture": "#0"},
				"down": {"uv": [13.5, 13.5, 13.25, 14], "texture": "#0"}
			}
		},
		{
			"from": [4.36459, 11.60257, 7.37],
			"to": [5.62459, 11.95257, 8.365],
			"rotation": {"angle": 22.5, "axis": "z", "origin": [8, 8, 8]},
			"faces": {
				"north": {"uv": [11.75, 14.5, 12, 14.75], "texture": "#0"},
				"east": {"uv": [12, 14.5, 12.25, 14.75], "texture": "#0"},
				"south": {"uv": [12.25, 14.5, 12.5, 14.75], "texture": "#0"},
				"west": {"uv": [12.5, 14.5, 12.75, 14.75], "texture": "#0"},
				"up": {"uv": [13, 14.75, 12.75, 14.5], "texture": "#0"},
				"down": {"uv": [13.25, 14.5, 13, 14.75], "texture": "#0"}
			}
		},
		{
			"from": [4.36459, 12.10257, 7.37],
			"to": [5.62459, 12.45257, 8.365],
			"rotation": {"angle": 22.5, "axis": "z", "origin": [8, 8, 8]},
			"faces": {
				"north": {"uv": [13.25, 14.5, 13.5, 14.75], "texture": "#0"},
				"east": {"uv": [13.5, 14.5, 13.75, 14.75], "texture": "#0"},
				"south": {"uv": [13.75, 14.5, 14, 14.75], "texture": "#0"},
				"west": {"uv": [14, 14.5, 14.25, 14.75], "texture": "#0"},
				"up": {"uv": [14.5, 14.75, 14.25, 14.5], "texture": "#0"},
				"down": {"uv": [14.75, 14.5, 14.5, 14.75], "texture": "#0"}
			}
		},
		{
			"from": [4.36459, 12.60257, 7.37],
			"to": [5.62459, 12.95257, 8.365],
			"rotation": {"angle": 22.5, "axis": "z", "origin": [8, 8, 8]},
			"faces": {
				"north": {"uv": [14.5, 0, 14.75, 0.25], "texture": "#0"},
				"east": {"uv": [14.5, 0.25, 14.75, 0.5], "texture": "#0"},
				"south": {"uv": [14.5, 0.5, 14.75, 0.75], "texture": "#0"},
				"west": {"uv": [14.5, 0.75, 14.75, 1], "texture": "#0"},
				"up": {"uv": [14.75, 1.25, 14.5, 1], "texture": "#0"},
				"down": {"uv": [14.75, 1.25, 14.5, 1.5], "texture": "#0"}
			}
		},
		{
			"from": [4.36459, 11.85257, 9.12],
			"to": [5.62459, 12.95257, 9.365],
			"rotation": {"angle": 22.5, "axis": "z", "origin": [8, 8, 8]},
			"faces": {
				"north": {"uv": [14.5, 1.5, 14.75, 1.75], "texture": "#0"},
				"east": {"uv": [14.5, 1.75, 14.75, 2], "texture": "#0"},
				"south": {"uv": [14.5, 2, 14.75, 2.25], "texture": "#0"},
				"west": {"uv": [14.5, 2.25, 14.75, 2.5], "texture": "#0"},
				"up": {"uv": [14.75, 2.75, 14.5, 2.5], "texture": "#0"},
				"down": {"uv": [14.75, 2.75, 14.5, 3], "texture": "#0"}
			}
		},
		{
			"from": [4.57459, 6.32757, 7.79],
			"to": [5.41459, 6.85257, 8.84],
			"rotation": {"angle": 22.5, "axis": "z", "origin": [8, 8, 8]},
			"faces": {
				"north": {"uv": [2.75, 12.25, 3, 12.5], "texture": "#0"},
				"east": {"uv": [13.75, 3.75, 14, 4], "texture": "#0"},
				"south": {"uv": [13.75, 4, 14, 4.25], "texture": "#0"},
				"west": {"uv": [13.75, 4.25, 14, 4.5], "texture": "#0"},
				"up": {"uv": [14, 4.75, 13.75, 4.5], "texture": "#0"},
				"down": {"uv": [14, 4.75, 13.75, 5], "texture": "#0"}
			}
		},
		{
			"from": [4.57459, 13.07757, 7.79],
			"to": [5.41459, 14.60257, 8.84],
			"rotation": {"angle": 22.5, "axis": "z", "origin": [8, 8, 8]},
			"faces": {
				"north": {"uv": [5.5, 13.75, 5.75, 14.25], "texture": "#0"},
				"east": {"uv": [5.75, 13.75, 6, 14.25], "texture": "#0"},
				"south": {"uv": [6, 13.75, 6.25, 14.25], "texture": "#0"},
				"west": {"uv": [6.25, 13.75, 6.5, 14.25], "texture": "#0"},
				"up": {"uv": [2.75, 14.75, 2.5, 14.5], "texture": "#0"},
				"down": {"uv": [3, 14.5, 2.75, 14.75], "texture": "#0"}
			}
		},
		{
			"from": [4.92959, 5.55257, 8],
			"to": [5.05959, 6.32757, 8.63],
			"rotation": {"angle": 22.5, "axis": "z", "origin": [8, 8, 8]},
			"faces": {
				"north": {"uv": [13.75, 5, 14, 5.25], "texture": "#0"},
				"east": {"uv": [13.75, 5.5, 14, 5.75], "texture": "#0"},
				"south": {"uv": [13.75, 5.75, 14, 6], "texture": "#0"},
				"west": {"uv": [13.75, 9, 14, 9.25], "texture": "#0"},
				"up": {"uv": [14, 9.5, 13.75, 9.25], "texture": "#0"},
				"down": {"uv": [14, 9.5, 13.75, 9.75], "texture": "#0"}
			}
		},
		{
			"from": [10.07929, 7.07201, 7.58],
			"to": [11.75929, 13.17201, 9.155],
			"rotation": {"angle": -22.5, "axis": "z", "origin": [8, 8, 8]},
			"faces": {
				"north": {"uv": [11.5, 0, 12, 1.5], "texture": "#0"},
				"east": {"uv": [9.25, 11.75, 9.75, 13.25], "texture": "#0"},
				"south": {"uv": [9.75, 11.75, 10.25, 13.25], "texture": "#0"},
				"west": {"uv": [10.25, 11.75, 10.75, 13.25], "texture": "#0"},
				"up": {"uv": [13.5, 5, 13, 4.5], "texture": "#0"},
				"down": {"uv": [13.5, 6, 13, 6.5], "texture": "#0"}
			}
		},
		{
			"from": [10.28929, 6.86201, 7.37],
			"to": [11.54929, 11.46201, 9.365],
			"rotation": {"angle": -22.5, "axis": "z", "origin": [8, 8, 8]},
			"faces": {
				"north": {"uv": [1.25, 13, 1.5, 14.25], "texture": "#0"},
				"east": {"uv": [12, 4.25, 12.5, 5.5], "texture": "#0"},
				"south": {"uv": [1.5, 13, 1.75, 14.25], "texture": "#0"},
				"west": {"uv": [0, 12.25, 0.5, 13.5], "texture": "#0"},
				"up": {"uv": [13.75, 4.5, 13.5, 4], "texture": "#0"},
				"down": {"uv": [13.75, 4.5, 13.5, 5], "texture": "#0"}
			}
		},
		{
			"from": [10.28929, 11.61201, 7.37],
			"to": [11.54929, 11.96201, 7.615],
			"rotation": {"angle": -22.5, "axis": "z", "origin": [8, 8, 8]},
			"faces": {
				"north": {"uv": [3.5, 14.5, 3.75, 14.75], "texture": "#0"},
				"east": {"uv": [3.75, 14.5, 4, 14.75], "texture": "#0"},
				"south": {"uv": [4, 14.5, 4.25, 14.75], "texture": "#0"},
				"west": {"uv": [4.25, 14.5, 4.5, 14.75], "texture": "#0"},
				"up": {"uv": [4.75, 14.75, 4.5, 14.5], "texture": "#0"},
				"down": {"uv": [5, 14.5, 4.75, 14.75], "texture": "#0"}
			}
		},
		{
			"from": [10.28929, 12.11201, 7.37],
			"to": [11.54929, 12.46201, 7.615],
			"rotation": {"angle": -22.5, "axis": "z", "origin": [8, 8, 8]},
			"faces": {
				"north": {"uv": [5, 14.5, 5.25, 14.75], "texture": "#0"},
				"east": {"uv": [5.25, 14.5, 5.5, 14.75], "texture": "#0"},
				"south": {"uv": [5.5, 14.5, 5.75, 14.75], "texture": "#0"},
				"west": {"uv": [5.75, 14.5, 6, 14.75], "texture": "#0"},
				"up": {"uv": [6.25, 14.75, 6, 14.5], "texture": "#0"},
				"down": {"uv": [6.5, 14.5, 6.25, 14.75], "texture": "#0"}
			}
		},
		{
			"from": [10.28929, 12.61201, 7.37],
			"to": [11.54929, 12.96201, 7.615],
			"rotation": {"angle": -22.5, "axis": "z", "origin": [8, 8, 8]},
			"faces": {
				"north": {"uv": [6.5, 14.5, 6.75, 14.75], "texture": "#0"},
				"east": {"uv": [6.75, 14.5, 7, 14.75], "texture": "#0"},
				"south": {"uv": [8.25, 14.5, 8.5, 14.75], "texture": "#0"},
				"west": {"uv": [8.5, 14.5, 8.75, 14.75], "texture": "#0"},
				"up": {"uv": [9, 14.75, 8.75, 14.5], "texture": "#0"},
				"down": {"uv": [9.25, 14.5, 9, 14.75], "texture": "#0"}
			}
		},
		{
			"from": [10.28929, 11.86201, 9.12],
			"to": [11.54929, 12.96201, 9.365],
			"rotation": {"angle": -22.5, "axis": "z", "origin": [8, 8, 8]},
			"faces": {
				"north": {"uv": [9.25, 14.5, 9.5, 14.75], "texture": "#0"},
				"east": {"uv": [9.5, 14.5, 9.75, 14.75], "texture": "#0"},
				"south": {"uv": [9.75, 14.5, 10, 14.75], "texture": "#0"},
				"west": {"uv": [10, 14.5, 10.25, 14.75], "texture": "#0"},
				"up": {"uv": [10.5, 14.75, 10.25, 14.5], "texture": "#0"},
				"down": {"uv": [10.75, 14.5, 10.5, 14.75], "texture": "#0"}
			}
		},
		{
			"from": [10.49929, 6.33701, 7.79],
			"to": [11.33929, 6.86201, 8.84],
			"rotation": {"angle": -22.5, "axis": "z", "origin": [8, 8, 8]},
			"faces": {
				"north": {"uv": [13.75, 12, 14, 12.25], "texture": "#0"},
				"east": {"uv": [13.75, 12.5, 14, 12.75], "texture": "#0"},
				"south": {"uv": [13.75, 12.75, 14, 13], "texture": "#0"},
				"west": {"uv": [4, 14, 4.25, 14.25], "texture": "#0"},
				"up": {"uv": [4.5, 14.25, 4.25, 14], "texture": "#0"},
				"down": {"uv": [6.75, 14, 6.5, 14.25], "texture": "#0"}
			}
		},
		{
			"from": [10.49929, 13.08701, 7.79],
			"to": [11.33929, 14.61201, 8.84],
			"rotation": {"angle": -22.5, "axis": "z", "origin": [8, 8, 8]},
			"faces": {
				"north": {"uv": [4.5, 13.75, 4.75, 14.25], "texture": "#0"},
				"east": {"uv": [4.75, 13.75, 5, 14.25], "texture": "#0"},
				"south": {"uv": [5, 13.75, 5.25, 14.25], "texture": "#0"},
				"west": {"uv": [5.25, 13.75, 5.5, 14.25], "texture": "#0"},
				"up": {"uv": [2.25, 14.75, 2, 14.5], "texture": "#0"},
				"down": {"uv": [2.5, 14.5, 2.25, 14.75], "texture": "#0"}
			}
		},
		{
			"from": [10.85429, 5.56201, 8],
			"to": [10.98429, 6.33701, 8.63],
			"rotation": {"angle": -22.5, "axis": "z", "origin": [8, 8, 8]},
			"faces": {
				"north": {"uv": [6.75, 14, 7, 14.25], "texture": "#0"},
				"east": {"uv": [8.25, 14, 8.5, 14.25], "texture": "#0"},
				"south": {"uv": [8.5, 14, 8.75, 14.25], "texture": "#0"},
				"west": {"uv": [9, 14, 9.25, 14.25], "texture": "#0"},
				"up": {"uv": [9.5, 14.25, 9.25, 14], "texture": "#0"},
				"down": {"uv": [9.75, 14, 9.5, 14.25], "texture": "#0"}
			}
		}
	],
	"display": {
		"thirdperson_righthand": {
			"rotation": [75, 45, 0],
			"translation": [0, 2.5, 0],
			"scale": [0.375, 0.375, 0.375]
		},
		"thirdperson_lefthand": {
			"rotation": [75, 45, 0],
			"translation": [0, 2.5, 0],
			"scale": [0.375, 0.375, 0.375]
		},
		"firstperson_righthand": {
			"rotation": [0, 45, 0],
			"scale": [0.4, 0.4, 0.4]
		},
		"firstperson_lefthand": {
			"rotation": [0, 225, 0],
			"scale": [0.4, 0.4, 0.4]
		},
		"ground": {
			"translation": [0, 3, 0],
			"scale": [0.25, 0.25, 0.25]
		},
		"gui": {
			"rotation": [30, 225, 0],
			"scale": [0.625, 0.625, 0.625]
		},
		"head": {
			"translation": [0, 14.25, -2]
		},
		"fixed": {
			"translation": [0, 0, -3.75],
			"scale": [0.5, 0.5, 0.5]
		}
	},
	"groups": [
		{
			"name": "rail_mounts",
			"origin": [8, 8, 8],
			"children": [0, 1, 2, 3, 4, 5, 6, 7, 8, 9, 10, 11]
		},
		{
			"name": "base",
			"origin": [8, 8, 8],
			"children": [12, 13, 14, 15, 16, 17, 18, 19, 20, 21, 22, 23, 24, 25, 26, 27, 28, 29, 30, 31, 32, 33, 34, 35, 36, 37]
		},
		{
			"name": "post",
			"origin": [8, 8, 8],
			"children": [38, 39, 40, 41]
		},
		{
			"name": "scope",
			"origin": [8, 8, 8],
			"children": [42, 43, 44, 45, 46, 47, 48, 49, 50, 51, 52, 53, 54, 55, 56]
		},
		{
			"name": "welder",
			"origin": [8, 8, 8],
			"children": [57, 58, 59, 60, 61, 62, 63, 64, 65]
		},
		{
			"name": "welder",
			"origin": [8, 8, 8],
			"children": [66, 67, 68, 69, 70, 71, 72, 73, 74]
		}
	]
}