{
	"credit": "Made with Blockbench",
	"textures": {
		"0": "tardis:blocks/xion_crystal",
		"particle": "tardis:blocks/xion_crystal"
	},
	"elements": [
		{
			"from": [7, -2.66421, 9.34315],
			"to": [11, 1.33579, 13.34315],
			"rotation": {"angle": 22.5, "axis": "y", "origin": [7, -0.66421, 9.34315]},
			"faces": {
				"north": {"uv": [5, 5, 9, 9], "texture": "#0"},
				"east": {"uv": [5, 5, 9, 9], "texture": "#0"},
				"south": {"uv": [5, 5, 9, 9], "texture": "#0"},
				"west": {"uv": [5, 5, 9, 9], "texture": "#0"},
				"up": {"uv": [5, 5, 9, 9], "texture": "#0"},
				"down": {"uv": [5, 5, 9, 9], "texture": "#0"}
			}
		},
		{
			"from": [4, -2.66421, 5.34315],
			"to": [8, 6.33579, 9.34315],
			"rotation": {"angle": 22.5, "axis": "z", "origin": [4, 1.33579, 5.34315]},
			"faces": {
				"north": {"uv": [4, 4, 8, 13], "texture": "#0"},
				"east": {"uv": [7, 4, 11, 13], "texture": "#0"},
				"south": {"uv": [4, 4, 8, 13], "texture": "#0"},
				"west": {"uv": [10, 5, 14, 14], "texture": "#0"},
				"up": {"uv": [5, 5, 9, 9], "texture": "#0"},
				"down": {"uv": [5, 5, 7, 7], "texture": "#0"}
			}
		},
		{
			"from": [3, -2.66421, 3.34315],
			"to": [7, 2.33579, 7.34315],
			"rotation": {"angle": 22.5, "axis": "z", "origin": [3, -0.66421, 3.34315]},
			"faces": {
				"north": {"uv": [4, 4, 8, 9], "texture": "#0"},
				"east": {"uv": [7, 4, 11, 9], "texture": "#0"},
				"south": {"uv": [4, 4, 8, 9], "texture": "#0"},
				"west": {"uv": [10, 5, 14, 10], "texture": "#0"},
				"up": {"uv": [5, 5, 7, 7], "texture": "#0"},
				"down": {"uv": [5, 5, 7, 7], "texture": "#0"}
			}
		},
		{
			"from": [4, -3.66421, 8.34315],
			"to": [6, 3.33579, 10.34315],
			"rotation": {"angle": 45, "axis": "z", "origin": [6, -0.66421, 8.34315]},
			"faces": {
				"north": {"uv": [4, 4, 6, 11], "rotation": 180, "texture": "#0"},
				"east": {"uv": [10, 5, 12, 12], "rotation": 180, "texture": "#0"},
				"south": {"uv": [4, 4, 6, 11], "rotation": 180, "texture": "#0"},
				"west": {"uv": [7, 4, 9, 11], "rotation": 180, "texture": "#0"},
				"up": {"uv": [5, 5, 7, 7], "rotation": 180, "texture": "#0"},
				"down": {"uv": [5, 5, 7, 7], "rotation": 180, "texture": "#0"}
			}
		},
		{
			"from": [8, -3.66421, 4.34315],
			"to": [10, 3.33579, 6.34315],
			"rotation": {"angle": 22.5, "axis": "z", "origin": [8, 0.33579, 4.34315]},
			"faces": {
				"north": {"uv": [4, 4, 6, 11], "texture": "#0"},
				"east": {"uv": [7, 4, 9, 11], "texture": "#0"},
				"south": {"uv": [4, 4, 6, 11], "texture": "#0"},
				"west": {"uv": [10, 5, 12, 12], "texture": "#0"},
				"up": {"uv": [5, 5, 7, 7], "texture": "#0"},
				"down": {"uv": [5, 5, 7, 7], "texture": "#0"}
			}
		}
	],
	"groups": [
		{
			"name": "Xion E",
			"origin": [8, -8, 8],
			"children": [0, 1, 2, 3, 4]
		}
	]
}