{
	"type": "tardis:quantiscope",
	"repair": false,
	"ingredients":[
		{"item":"minecraft:gold_nugget"},
		{"item":"minecraft:gold_nugget"},
		{"item":"tardis:circuits"},
		{"item":"tardis:xion_crystal"},
		{"item":"tardis:xion_crystal"}
	],
	"result":{
		"item":"tardis:data_crystal"
	}
}